digraph "arrayobserver.hpp"
{
  edge [fontname="Helvetica",fontsize="10",labelfontname="Helvetica",labelfontsize="10"];
  node [fontname="Helvetica",fontsize="10",shape=record];
  Node1 [label="arrayobserver.hpp",height=0.2,width=0.4,color="black", fillcolor="grey75", style="filled", fontcolor="black"];
  Node1 -> Node2 [dir="back",color="midnightblue",fontsize="10",style="solid",fontname="Helvetica"];
  Node2 [label="arraysubject.hpp",height=0.2,width=0.4,color="black", fillcolor="white", style="filled",URL="$arraysubject_8hpp.html"];
  Node1 -> Node3 [dir="back",color="midnightblue",fontsize="10",style="solid",fontname="Helvetica"];
  Node3 [label="printingobserver.hpp",height=0.2,width=0.4,color="black", fillcolor="white", style="filled",URL="$printingobserver_8hpp.html"];
}
