operator_indep.cpp: In function ‘int main()’:
operator_indep.cpp:25:10: error: no match for ‘operator+’ (operand types are ‘A’ and ‘int’)
  A d = a + 1; //sol 1,2 ok
        ~~^~~
operator_indep.cpp:15:3: note: candidate: A operator+(A, A)
 A operator + (A a1, A a2) //sol, 2
   ^~~~~~~~
operator_indep.cpp:15:3: note:   no known conversion for argument 2 from ‘int’ to ‘A’
In file included from /usr/include/c++/7/string:52:0,
                 from /usr/include/c++/7/bits/locale_classes.h:40,
                 from /usr/include/c++/7/bits/ios_base.h:41,
                 from /usr/include/c++/7/ios:42,
                 from /usr/include/c++/7/ostream:38,
                 from /usr/include/c++/7/iostream:39,
                 from operator_indep.cpp:1:
/usr/include/c++/7/bits/basic_string.h:5986:5: note: candidate: template<class _CharT, class _Traits, class _Alloc> std::__cxx11::basic_string<_CharT, _Traits, _Alloc> std::operator+(std::__cxx11::basic_string<_CharT, _Traits, _Alloc>&&, _CharT)
     operator+(basic_string<_CharT, _Traits, _Alloc>&& __lhs,
     ^~~~~~~~
/usr/include/c++/7/bits/basic_string.h:5986:5: note:   template argument deduction/substitution failed:
operator_indep.cpp:25:12: note:   ‘A’ is not derived from ‘std::__cxx11::basic_string<_CharT, _Traits, _Alloc>’
  A d = a + 1; //sol 1,2 ok
            ^
In file included from /usr/include/c++/7/string:52:0,
                 from /usr/include/c++/7/bits/locale_classes.h:40,
                 from /usr/include/c++/7/bits/ios_base.h:41,
                 from /usr/include/c++/7/ios:42,
                 from /usr/include/c++/7/ostream:38,
                 from /usr/include/c++/7/iostream:39,
                 from operator_indep.cpp:1:
/usr/include/c++/7/bits/basic_string.h:5980:5: note: candidate: template<class _CharT, class _Traits, class _Alloc> std::__cxx11::basic_string<_CharT, _Traits, _Alloc> std::operator+(std::__cxx11::basic_string<_CharT, _Traits, _Alloc>&&, const _CharT*)
     operator+(basic_string<_CharT, _Traits, _Alloc>&& __lhs,
     ^~~~~~~~
/usr/include/c++/7/bits/basic_string.h:5980:5: note:   template argument deduction/substitution failed:
operator_indep.cpp:25:12: note:   ‘A’ is not derived from ‘std::__cxx11::basic_string<_CharT, _Traits, _Alloc>’
  A d = a + 1; //sol 1,2 ok
            ^
In file included from /usr/include/c++/7/string:52:0,
                 from /usr/include/c++/7/bits/locale_classes.h:40,
                 from /usr/include/c++/7/bits/ios_base.h:41,
                 from /usr/include/c++/7/ios:42,
                 from /usr/include/c++/7/ostream:38,
                 from /usr/include/c++/7/iostream:39,
                 from operator_indep.cpp:1:
/usr/include/c++/7/bits/basic_string.h:5974:5: note: candidate: template<class _CharT, class _Traits, class _Alloc> std::__cxx11::basic_string<_CharT, _Traits, _Alloc> std::operator+(_CharT, std::__cxx11::basic_string<_CharT, _Traits, _Alloc>&&)
     operator+(_CharT __lhs,
     ^~~~~~~~
/usr/include/c++/7/bits/basic_string.h:5974:5: note:   template argument deduction/substitution failed:
operator_indep.cpp:25:12: note:   mismatched types ‘std::__cxx11::basic_string<_CharT, _Traits, _Alloc>’ and ‘int’
  A d = a + 1; //sol 1,2 ok
            ^
In file included from /usr/include/c++/7/string:52:0,
                 from /usr/include/c++/7/bits/locale_classes.h:40,
                 from /usr/include/c++/7/bits/ios_base.h:41,
                 from /usr/include/c++/7/ios:42,
                 from /usr/include/c++/7/ostream:38,
                 from /usr/include/c++/7/iostream:39,
                 from operator_indep.cpp:1:
/usr/include/c++/7/bits/basic_string.h:5968:5: note: candidate: template<class _CharT, class _Traits, class _Alloc> std::__cxx11::basic_string<_CharT, _Traits, _Alloc> std::operator+(const _CharT*, std::__cxx11::basic_string<_CharT, _Traits, _Alloc>&&)
     operator+(const _CharT* __lhs,
     ^~~~~~~~
/usr/include/c++/7/bits/basic_string.h:5968:5: note:   template argument deduction/substitution failed:
operator_indep.cpp:25:12: note:   mismatched types ‘const _CharT*’ and ‘A’
  A d = a + 1; //sol 1,2 ok
            ^
In file included from /usr/include/c++/7/string:52:0,
                 from /usr/include/c++/7/bits/locale_classes.h:40,
                 from /usr/include/c++/7/bits/ios_base.h:41,
                 from /usr/include/c++/7/ios:42,
                 from /usr/include/c++/7/ostream:38,
                 from /usr/include/c++/7/iostream:39,
                 from operator_indep.cpp:1:
/usr/include/c++/7/bits/basic_string.h:5956:5: note: candidate: template<class _CharT, class _Traits, class _Alloc> std::__cxx11::basic_string<_CharT, _Traits, _Alloc> std::operator+(std::__cxx11::basic_string<_CharT, _Traits, _Alloc>&&, std::__cxx11::basic_string<_CharT, _Traits, _Alloc>&&)
     operator+(basic_string<_CharT, _Traits, _Alloc>&& __lhs,
     ^~~~~~~~
/usr/include/c++/7/bits/basic_string.h:5956:5: note:   template argument deduction/substitution failed:
operator_indep.cpp:25:12: note:   ‘A’ is not derived from ‘std::__cxx11::basic_string<_CharT, _Traits, _Alloc>’
  A d = a + 1; //sol 1,2 ok
            ^
In file included from /usr/include/c++/7/string:52:0,
                 from /usr/include/c++/7/bits/locale_classes.h:40,
                 from /usr/include/c++/7/bits/ios_base.h:41,
                 from /usr/include/c++/7/ios:42,
                 from /usr/include/c++/7/ostream:38,
                 from /usr/include/c++/7/iostream:39,
                 from operator_indep.cpp:1:
/usr/include/c++/7/bits/basic_string.h:5950:5: note: candidate: template<class _CharT, class _Traits, class _Alloc> std::__cxx11::basic_string<_CharT, _Traits, _Alloc> std::operator+(const std::__cxx11::basic_string<_CharT, _Traits, _Alloc>&, std::__cxx11::basic_string<_CharT, _Traits, _Alloc>&&)
     operator+(const basic_string<_CharT, _Traits, _Alloc>& __lhs,
     ^~~~~~~~
/usr/include/c++/7/bits/basic_string.h:5950:5: note:   template argument deduction/substitution failed:
operator_indep.cpp:25:12: note:   ‘A’ is not derived from ‘const std::__cxx11::basic_string<_CharT, _Traits, _Alloc>’
  A d = a + 1; //sol 1,2 ok
            ^
In file included from /usr/include/c++/7/string:52:0,
                 from /usr/include/c++/7/bits/locale_classes.h:40,
                 from /usr/include/c++/7/bits/ios_base.h:41,
                 from /usr/include/c++/7/ios:42,
                 from /usr/include/c++/7/ostream:38,
                 from /usr/include/c++/7/iostream:39,
                 from operator_indep.cpp:1:
/usr/include/c++/7/bits/basic_string.h:5944:5: note: candidate: template<class _CharT, class _Traits, class _Alloc> std::__cxx11::basic_string<_CharT, _Traits, _Alloc> std::operator+(std::__cxx11::basic_string<_CharT, _Traits, _Alloc>&&, const std::__cxx11::basic_string<_CharT, _Traits, _Alloc>&)
     operator+(basic_string<_CharT, _Traits, _Alloc>&& __lhs,
     ^~~~~~~~
/usr/include/c++/7/bits/basic_string.h:5944:5: note:   template argument deduction/substitution failed:
operator_indep.cpp:25:12: note:   ‘A’ is not derived from ‘std::__cxx11::basic_string<_CharT, _Traits, _Alloc>’
  A d = a + 1; //sol 1,2 ok
            ^
In file included from /usr/include/c++/7/string:52:0,
                 from /usr/include/c++/7/bits/locale_classes.h:40,
                 from /usr/include/c++/7/bits/ios_base.h:41,
                 from /usr/include/c++/7/ios:42,
                 from /usr/include/c++/7/ostream:38,
                 from /usr/include/c++/7/iostream:39,
                 from operator_indep.cpp:1:
/usr/include/c++/7/bits/basic_string.h:5932:5: note: candidate: template<class _CharT, class _Traits, class _Alloc> std::__cxx11::basic_string<_CharT, _Traits, _Alloc> std::operator+(const std::__cxx11::basic_string<_CharT, _Traits, _Alloc>&, _CharT)
     operator+(const basic_string<_CharT, _Traits, _Alloc>& __lhs, _CharT __rhs)
     ^~~~~~~~
/usr/include/c++/7/bits/basic_string.h:5932:5: note:   template argument deduction/substitution failed:
operator_indep.cpp:25:12: note:   ‘A’ is not derived from ‘const std::__cxx11::basic_string<_CharT, _Traits, _Alloc>’
  A d = a + 1; //sol 1,2 ok
            ^
In file included from /usr/include/c++/7/string:52:0,
                 from /usr/include/c++/7/bits/locale_classes.h:40,
                 from /usr/include/c++/7/bits/ios_base.h:41,
                 from /usr/include/c++/7/ios:42,
                 from /usr/include/c++/7/ostream:38,
                 from /usr/include/c++/7/iostream:39,
                 from operator_indep.cpp:1:
/usr/include/c++/7/bits/basic_string.h:5916:5: note: candidate: template<class _CharT, class _Traits, class _Alloc> std::__cxx11::basic_string<_CharT, _Traits, _Alloc> std::operator+(const std::__cxx11::basic_string<_CharT, _Traits, _Alloc>&, const _CharT*)
     operator+(const basic_string<_CharT, _Traits, _Alloc>& __lhs,
     ^~~~~~~~
/usr/include/c++/7/bits/basic_string.h:5916:5: note:   template argument deduction/substitution failed:
operator_indep.cpp:25:12: note:   ‘A’ is not derived from ‘const std::__cxx11::basic_string<_CharT, _Traits, _Alloc>’
  A d = a + 1; //sol 1,2 ok
            ^
In file included from /usr/include/c++/7/string:53:0,
                 from /usr/include/c++/7/bits/locale_classes.h:40,
                 from /usr/include/c++/7/bits/ios_base.h:41,
                 from /usr/include/c++/7/ios:42,
                 from /usr/include/c++/7/ostream:38,
                 from /usr/include/c++/7/iostream:39,
                 from operator_indep.cpp:1:
/usr/include/c++/7/bits/basic_string.tcc:1173:5: note: candidate: template<class _CharT, class _Traits, class _Alloc> std::__cxx11::basic_string<_CharT, _Traits, _Alloc> std::operator+(_CharT, const std::__cxx11::basic_string<_CharT, _Traits, _Alloc>&)
     operator+(_CharT __lhs, const basic_string<_CharT, _Traits, _Alloc>& __rhs)
     ^~~~~~~~
/usr/include/c++/7/bits/basic_string.tcc:1173:5: note:   template argument deduction/substitution failed:
operator_indep.cpp:25:12: note:   mismatched types ‘const std::__cxx11::basic_string<_CharT, _Traits, _Alloc>’ and ‘int’
  A d = a + 1; //sol 1,2 ok
            ^
In file included from /usr/include/c++/7/string:53:0,
                 from /usr/include/c++/7/bits/locale_classes.h:40,
                 from /usr/include/c++/7/bits/ios_base.h:41,
                 from /usr/include/c++/7/ios:42,
                 from /usr/include/c++/7/ostream:38,
                 from /usr/include/c++/7/iostream:39,
                 from operator_indep.cpp:1:
/usr/include/c++/7/bits/basic_string.tcc:1157:5: note: candidate: template<class _CharT, class _Traits, class _Alloc> std::__cxx11::basic_string<_CharT, _Traits, _Alloc> std::operator+(const _CharT*, const std::__cxx11::basic_string<_CharT, _Traits, _Alloc>&)
     operator+(const _CharT* __lhs,
     ^~~~~~~~
/usr/include/c++/7/bits/basic_string.tcc:1157:5: note:   template argument deduction/substitution failed:
operator_indep.cpp:25:12: note:   mismatched types ‘const _CharT*’ and ‘A’
  A d = a + 1; //sol 1,2 ok
            ^
In file included from /usr/include/c++/7/string:52:0,
                 from /usr/include/c++/7/bits/locale_classes.h:40,
                 from /usr/include/c++/7/bits/ios_base.h:41,
                 from /usr/include/c++/7/ios:42,
                 from /usr/include/c++/7/ostream:38,
                 from /usr/include/c++/7/iostream:39,
                 from operator_indep.cpp:1:
/usr/include/c++/7/bits/basic_string.h:5879:5: note: candidate: template<class _CharT, class _Traits, class _Alloc> std::__cxx11::basic_string<_CharT, _Traits, _Alloc> std::operator+(const std::__cxx11::basic_string<_CharT, _Traits, _Alloc>&, const std::__cxx11::basic_string<_CharT, _Traits, _Alloc>&)
     operator+(const basic_string<_CharT, _Traits, _Alloc>& __lhs,
     ^~~~~~~~
/usr/include/c++/7/bits/basic_string.h:5879:5: note:   template argument deduction/substitution failed:
operator_indep.cpp:25:12: note:   ‘A’ is not derived from ‘const std::__cxx11::basic_string<_CharT, _Traits, _Alloc>’
  A d = a + 1; //sol 1,2 ok
            ^
In file included from /usr/include/c++/7/bits/stl_algobase.h:67:0,
                 from /usr/include/c++/7/bits/char_traits.h:39,
                 from /usr/include/c++/7/ios:40,
                 from /usr/include/c++/7/ostream:38,
                 from /usr/include/c++/7/iostream:39,
                 from operator_indep.cpp:1:
/usr/include/c++/7/bits/stl_iterator.h:1198:5: note: candidate: template<class _Iterator> std::move_iterator<_IteratorL> std::operator+(typename std::move_iterator<_IteratorL>::difference_type, const std::move_iterator<_IteratorL>&)
     operator+(typename move_iterator<_Iterator>::difference_type __n,
     ^~~~~~~~
/usr/include/c++/7/bits/stl_iterator.h:1198:5: note:   template argument deduction/substitution failed:
operator_indep.cpp:25:12: note:   mismatched types ‘const std::move_iterator<_IteratorL>’ and ‘int’
  A d = a + 1; //sol 1,2 ok
            ^
In file included from /usr/include/c++/7/bits/stl_algobase.h:67:0,
                 from /usr/include/c++/7/bits/char_traits.h:39,
                 from /usr/include/c++/7/ios:40,
                 from /usr/include/c++/7/ostream:38,
                 from /usr/include/c++/7/iostream:39,
                 from operator_indep.cpp:1:
/usr/include/c++/7/bits/stl_iterator.h:397:5: note: candidate: template<class _Iterator> std::reverse_iterator<_Iterator> std::operator+(typename std::reverse_iterator<_Iterator>::difference_type, const std::reverse_iterator<_Iterator>&)
     operator+(typename reverse_iterator<_Iterator>::difference_type __n,
     ^~~~~~~~
/usr/include/c++/7/bits/stl_iterator.h:397:5: note:   template argument deduction/substitution failed:
operator_indep.cpp:25:12: note:   mismatched types ‘const std::reverse_iterator<_Iterator>’ and ‘int’
  A d = a + 1; //sol 1,2 ok
            ^
operator_indep.cpp:26:10: error: no match for ‘operator+’ (operand types are ‘int’ and ‘A’)
  A e = 1 + a; //sol 2 ok
        ~~^~~
operator_indep.cpp:15:3: note: candidate: A operator+(A, A)
 A operator + (A a1, A a2) //sol, 2
   ^~~~~~~~
operator_indep.cpp:15:3: note:   no known conversion for argument 1 from ‘int’ to ‘A’
In file included from /usr/include/c++/7/string:52:0,
                 from /usr/include/c++/7/bits/locale_classes.h:40,
                 from /usr/include/c++/7/bits/ios_base.h:41,
                 from /usr/include/c++/7/ios:42,
                 from /usr/include/c++/7/ostream:38,
                 from /usr/include/c++/7/iostream:39,
                 from operator_indep.cpp:1:
/usr/include/c++/7/bits/basic_string.h:5986:5: note: candidate: template<class _CharT, class _Traits, class _Alloc> std::__cxx11::basic_string<_CharT, _Traits, _Alloc> std::operator+(std::__cxx11::basic_string<_CharT, _Traits, _Alloc>&&, _CharT)
     operator+(basic_string<_CharT, _Traits, _Alloc>&& __lhs,
     ^~~~~~~~
/usr/include/c++/7/bits/basic_string.h:5986:5: note:   template argument deduction/substitution failed:
operator_indep.cpp:26:12: note:   mismatched types ‘std::__cxx11::basic_string<_CharT, _Traits, _Alloc>’ and ‘int’
  A e = 1 + a; //sol 2 ok
            ^
In file included from /usr/include/c++/7/string:52:0,
                 from /usr/include/c++/7/bits/locale_classes.h:40,
                 from /usr/include/c++/7/bits/ios_base.h:41,
                 from /usr/include/c++/7/ios:42,
                 from /usr/include/c++/7/ostream:38,
                 from /usr/include/c++/7/iostream:39,
                 from operator_indep.cpp:1:
/usr/include/c++/7/bits/basic_string.h:5980:5: note: candidate: template<class _CharT, class _Traits, class _Alloc> std::__cxx11::basic_string<_CharT, _Traits, _Alloc> std::operator+(std::__cxx11::basic_string<_CharT, _Traits, _Alloc>&&, const _CharT*)
     operator+(basic_string<_CharT, _Traits, _Alloc>&& __lhs,
     ^~~~~~~~
/usr/include/c++/7/bits/basic_string.h:5980:5: note:   template argument deduction/substitution failed:
operator_indep.cpp:26:12: note:   mismatched types ‘std::__cxx11::basic_string<_CharT, _Traits, _Alloc>’ and ‘int’
  A e = 1 + a; //sol 2 ok
            ^
In file included from /usr/include/c++/7/string:52:0,
                 from /usr/include/c++/7/bits/locale_classes.h:40,
                 from /usr/include/c++/7/bits/ios_base.h:41,
                 from /usr/include/c++/7/ios:42,
                 from /usr/include/c++/7/ostream:38,
                 from /usr/include/c++/7/iostream:39,
                 from operator_indep.cpp:1:
/usr/include/c++/7/bits/basic_string.h:5974:5: note: candidate: template<class _CharT, class _Traits, class _Alloc> std::__cxx11::basic_string<_CharT, _Traits, _Alloc> std::operator+(_CharT, std::__cxx11::basic_string<_CharT, _Traits, _Alloc>&&)
     operator+(_CharT __lhs,
     ^~~~~~~~
/usr/include/c++/7/bits/basic_string.h:5974:5: note:   template argument deduction/substitution failed:
operator_indep.cpp:26:12: note:   ‘A’ is not derived from ‘std::__cxx11::basic_string<_CharT, _Traits, _Alloc>’
  A e = 1 + a; //sol 2 ok
            ^
In file included from /usr/include/c++/7/string:52:0,
                 from /usr/include/c++/7/bits/locale_classes.h:40,
                 from /usr/include/c++/7/bits/ios_base.h:41,
                 from /usr/include/c++/7/ios:42,
                 from /usr/include/c++/7/ostream:38,
                 from /usr/include/c++/7/iostream:39,
                 from operator_indep.cpp:1:
/usr/include/c++/7/bits/basic_string.h:5968:5: note: candidate: template<class _CharT, class _Traits, class _Alloc> std::__cxx11::basic_string<_CharT, _Traits, _Alloc> std::operator+(const _CharT*, std::__cxx11::basic_string<_CharT, _Traits, _Alloc>&&)
     operator+(const _CharT* __lhs,
     ^~~~~~~~
/usr/include/c++/7/bits/basic_string.h:5968:5: note:   template argument deduction/substitution failed:
operator_indep.cpp:26:12: note:   mismatched types ‘const _CharT*’ and ‘int’
  A e = 1 + a; //sol 2 ok
            ^
In file included from /usr/include/c++/7/string:52:0,
                 from /usr/include/c++/7/bits/locale_classes.h:40,
                 from /usr/include/c++/7/bits/ios_base.h:41,
                 from /usr/include/c++/7/ios:42,
                 from /usr/include/c++/7/ostream:38,
                 from /usr/include/c++/7/iostream:39,
                 from operator_indep.cpp:1:
/usr/include/c++/7/bits/basic_string.h:5956:5: note: candidate: template<class _CharT, class _Traits, class _Alloc> std::__cxx11::basic_string<_CharT, _Traits, _Alloc> std::operator+(std::__cxx11::basic_string<_CharT, _Traits, _Alloc>&&, std::__cxx11::basic_string<_CharT, _Traits, _Alloc>&&)
     operator+(basic_string<_CharT, _Traits, _Alloc>&& __lhs,
     ^~~~~~~~
/usr/include/c++/7/bits/basic_string.h:5956:5: note:   template argument deduction/substitution failed:
operator_indep.cpp:26:12: note:   mismatched types ‘std::__cxx11::basic_string<_CharT, _Traits, _Alloc>’ and ‘int’
  A e = 1 + a; //sol 2 ok
            ^
In file included from /usr/include/c++/7/string:52:0,
                 from /usr/include/c++/7/bits/locale_classes.h:40,
                 from /usr/include/c++/7/bits/ios_base.h:41,
                 from /usr/include/c++/7/ios:42,
                 from /usr/include/c++/7/ostream:38,
                 from /usr/include/c++/7/iostream:39,
                 from operator_indep.cpp:1:
/usr/include/c++/7/bits/basic_string.h:5950:5: note: candidate: template<class _CharT, class _Traits, class _Alloc> std::__cxx11::basic_string<_CharT, _Traits, _Alloc> std::operator+(const std::__cxx11::basic_string<_CharT, _Traits, _Alloc>&, std::__cxx11::basic_string<_CharT, _Traits, _Alloc>&&)
     operator+(const basic_string<_CharT, _Traits, _Alloc>& __lhs,
     ^~~~~~~~
/usr/include/c++/7/bits/basic_string.h:5950:5: note:   template argument deduction/substitution failed:
operator_indep.cpp:26:12: note:   mismatched types ‘const std::__cxx11::basic_string<_CharT, _Traits, _Alloc>’ and ‘int’
  A e = 1 + a; //sol 2 ok
            ^
In file included from /usr/include/c++/7/string:52:0,
                 from /usr/include/c++/7/bits/locale_classes.h:40,
                 from /usr/include/c++/7/bits/ios_base.h:41,
                 from /usr/include/c++/7/ios:42,
                 from /usr/include/c++/7/ostream:38,
                 from /usr/include/c++/7/iostream:39,
                 from operator_indep.cpp:1:
/usr/include/c++/7/bits/basic_string.h:5944:5: note: candidate: template<class _CharT, class _Traits, class _Alloc> std::__cxx11::basic_string<_CharT, _Traits, _Alloc> std::operator+(std::__cxx11::basic_string<_CharT, _Traits, _Alloc>&&, const std::__cxx11::basic_string<_CharT, _Traits, _Alloc>&)
     operator+(basic_string<_CharT, _Traits, _Alloc>&& __lhs,
     ^~~~~~~~
/usr/include/c++/7/bits/basic_string.h:5944:5: note:   template argument deduction/substitution failed:
operator_indep.cpp:26:12: note:   mismatched types ‘std::__cxx11::basic_string<_CharT, _Traits, _Alloc>’ and ‘int’
  A e = 1 + a; //sol 2 ok
            ^
In file included from /usr/include/c++/7/string:52:0,
                 from /usr/include/c++/7/bits/locale_classes.h:40,
                 from /usr/include/c++/7/bits/ios_base.h:41,
                 from /usr/include/c++/7/ios:42,
                 from /usr/include/c++/7/ostream:38,
                 from /usr/include/c++/7/iostream:39,
                 from operator_indep.cpp:1:
/usr/include/c++/7/bits/basic_string.h:5932:5: note: candidate: template<class _CharT, class _Traits, class _Alloc> std::__cxx11::basic_string<_CharT, _Traits, _Alloc> std::operator+(const std::__cxx11::basic_string<_CharT, _Traits, _Alloc>&, _CharT)
     operator+(const basic_string<_CharT, _Traits, _Alloc>& __lhs, _CharT __rhs)
     ^~~~~~~~
/usr/include/c++/7/bits/basic_string.h:5932:5: note:   template argument deduction/substitution failed:
operator_indep.cpp:26:12: note:   mismatched types ‘const std::__cxx11::basic_string<_CharT, _Traits, _Alloc>’ and ‘int’
  A e = 1 + a; //sol 2 ok
            ^
In file included from /usr/include/c++/7/string:52:0,
                 from /usr/include/c++/7/bits/locale_classes.h:40,
                 from /usr/include/c++/7/bits/ios_base.h:41,
                 from /usr/include/c++/7/ios:42,
                 from /usr/include/c++/7/ostream:38,
                 from /usr/include/c++/7/iostream:39,
                 from operator_indep.cpp:1:
/usr/include/c++/7/bits/basic_string.h:5916:5: note: candidate: template<class _CharT, class _Traits, class _Alloc> std::__cxx11::basic_string<_CharT, _Traits, _Alloc> std::operator+(const std::__cxx11::basic_string<_CharT, _Traits, _Alloc>&, const _CharT*)
     operator+(const basic_string<_CharT, _Traits, _Alloc>& __lhs,
     ^~~~~~~~
/usr/include/c++/7/bits/basic_string.h:5916:5: note:   template argument deduction/substitution failed:
operator_indep.cpp:26:12: note:   mismatched types ‘const std::__cxx11::basic_string<_CharT, _Traits, _Alloc>’ and ‘int’
  A e = 1 + a; //sol 2 ok
            ^
In file included from /usr/include/c++/7/string:53:0,
                 from /usr/include/c++/7/bits/locale_classes.h:40,
                 from /usr/include/c++/7/bits/ios_base.h:41,
                 from /usr/include/c++/7/ios:42,
                 from /usr/include/c++/7/ostream:38,
                 from /usr/include/c++/7/iostream:39,
                 from operator_indep.cpp:1:
/usr/include/c++/7/bits/basic_string.tcc:1173:5: note: candidate: template<class _CharT, class _Traits, class _Alloc> std::__cxx11::basic_string<_CharT, _Traits, _Alloc> std::operator+(_CharT, const std::__cxx11::basic_string<_CharT, _Traits, _Alloc>&)
     operator+(_CharT __lhs, const basic_string<_CharT, _Traits, _Alloc>& __rhs)
     ^~~~~~~~
/usr/include/c++/7/bits/basic_string.tcc:1173:5: note:   template argument deduction/substitution failed:
operator_indep.cpp:26:12: note:   ‘A’ is not derived from ‘const std::__cxx11::basic_string<_CharT, _Traits, _Alloc>’
  A e = 1 + a; //sol 2 ok
            ^
In file included from /usr/include/c++/7/string:53:0,
                 from /usr/include/c++/7/bits/locale_classes.h:40,
                 from /usr/include/c++/7/bits/ios_base.h:41,
                 from /usr/include/c++/7/ios:42,
                 from /usr/include/c++/7/ostream:38,
                 from /usr/include/c++/7/iostream:39,
                 from operator_indep.cpp:1:
/usr/include/c++/7/bits/basic_string.tcc:1157:5: note: candidate: template<class _CharT, class _Traits, class _Alloc> std::__cxx11::basic_string<_CharT, _Traits, _Alloc> std::operator+(const _CharT*, const std::__cxx11::basic_string<_CharT, _Traits, _Alloc>&)
     operator+(const _CharT* __lhs,
     ^~~~~~~~
/usr/include/c++/7/bits/basic_string.tcc:1157:5: note:   template argument deduction/substitution failed:
operator_indep.cpp:26:12: note:   mismatched types ‘const _CharT*’ and ‘int’
  A e = 1 + a; //sol 2 ok
            ^
In file included from /usr/include/c++/7/string:52:0,
                 from /usr/include/c++/7/bits/locale_classes.h:40,
                 from /usr/include/c++/7/bits/ios_base.h:41,
                 from /usr/include/c++/7/ios:42,
                 from /usr/include/c++/7/ostream:38,
                 from /usr/include/c++/7/iostream:39,
                 from operator_indep.cpp:1:
/usr/include/c++/7/bits/basic_string.h:5879:5: note: candidate: template<class _CharT, class _Traits, class _Alloc> std::__cxx11::basic_string<_CharT, _Traits, _Alloc> std::operator+(const std::__cxx11::basic_string<_CharT, _Traits, _Alloc>&, const std::__cxx11::basic_string<_CharT, _Traits, _Alloc>&)
     operator+(const basic_string<_CharT, _Traits, _Alloc>& __lhs,
     ^~~~~~~~
/usr/include/c++/7/bits/basic_string.h:5879:5: note:   template argument deduction/substitution failed:
operator_indep.cpp:26:12: note:   mismatched types ‘const std::__cxx11::basic_string<_CharT, _Traits, _Alloc>’ and ‘int’
  A e = 1 + a; //sol 2 ok
            ^
In file included from /usr/include/c++/7/bits/stl_algobase.h:67:0,
                 from /usr/include/c++/7/bits/char_traits.h:39,
                 from /usr/include/c++/7/ios:40,
                 from /usr/include/c++/7/ostream:38,
                 from /usr/include/c++/7/iostream:39,
                 from operator_indep.cpp:1:
/usr/include/c++/7/bits/stl_iterator.h:1198:5: note: candidate: template<class _Iterator> std::move_iterator<_IteratorL> std::operator+(typename std::move_iterator<_IteratorL>::difference_type, const std::move_iterator<_IteratorL>&)
     operator+(typename move_iterator<_Iterator>::difference_type __n,
     ^~~~~~~~
/usr/include/c++/7/bits/stl_iterator.h:1198:5: note:   template argument deduction/substitution failed:
operator_indep.cpp:26:12: note:   ‘A’ is not derived from ‘const std::move_iterator<_IteratorL>’
  A e = 1 + a; //sol 2 ok
            ^
In file included from /usr/include/c++/7/bits/stl_algobase.h:67:0,
                 from /usr/include/c++/7/bits/char_traits.h:39,
                 from /usr/include/c++/7/ios:40,
                 from /usr/include/c++/7/ostream:38,
                 from /usr/include/c++/7/iostream:39,
                 from operator_indep.cpp:1:
/usr/include/c++/7/bits/stl_iterator.h:397:5: note: candidate: template<class _Iterator> std::reverse_iterator<_Iterator> std::operator+(typename std::reverse_iterator<_Iterator>::difference_type, const std::reverse_iterator<_Iterator>&)
     operator+(typename reverse_iterator<_Iterator>::difference_type __n,
     ^~~~~~~~
/usr/include/c++/7/bits/stl_iterator.h:397:5: note:   template argument deduction/substitution failed:
operator_indep.cpp:26:12: note:   ‘A’ is not derived from ‘const std::reverse_iterator<_Iterator>’
  A e = 1 + a; //sol 2 ok
            ^
